<?xml version="1.0" encoding="UTF-8" standalone="no"?>
<svg
   xmlns:dc="http://purl.org/dc/elements/1.1/"
   xmlns:cc="http://creativecommons.org/ns#"
   xmlns:rdf="http://www.w3.org/1999/02/22-rdf-syntax-ns#"
   xmlns:svg="http://www.w3.org/2000/svg"
   xmlns="http://www.w3.org/2000/svg"
   width="60.107307"
   height="107.0691"
   viewBox="0 0 15.903392 28.328699"
   version="1.1"
   id="icon_walking">
  <style
     id="style2">
  .color_fill {
    fill: #4caf50;
  }
  .color_stroke {
    stroke: #4caf50;
  }
  </style>
  <defs
     id="defs4" />
  <metadata
     id="metadata6">
    <rdf:RDF>
      <cc:Work
         rdf:about="">
        <dc:format>image/svg+xml</dc:format>
        <dc:type
           rdf:resource="http://purl.org/dc/dcmitype/StillImage" />
        <dc:title></dc:title>
      </cc:Work>
    </rdf:RDF>
  </metadata>
  <g
     transform="translate(-1.0478222,-0.66666675)"
     id="g12">
    <path
       id="legs"
       class="color_stroke"
       style="stroke-width: 2.64583325; fill: none; stroke-linecap: round; stroke-linejoin: round;"
       d="m 3.7041662,27.654167 2.645833,-5.291667 1.322917,-5.291667 2.6458328,5.291667 1.322917,5.291667"
       transform="scale(1.0)" />
    <path
       id="torso"
       class="color_stroke"
       style="stroke-width: 2.64583325; fill: none; stroke-linecap: round; stroke-linejoin: round;"
       d="M 7.6729162,17.070833 8.9958322,7.8104166"
       transform="scale(1.0)" />
    <circle
       id="head"
       class="color_fill"
       cx="9.260417"
       cy="3.3125"
       r="2.6458333" />
    <path
       id="hands"
       class="color_stroke"
       style="stroke-width: 2.64583325; fill: none; stroke-linecap: round; stroke-linejoin: round;"
       d="m 2.3812492,13.102084 2.645833,-3.9687508 3.96875,-1.3229166 2.6458338,3.9687504 3.96875,1.322917"
       transform="scale(1.0)" />
  </g>
</svg>
